4 Data splitting systems | Model validation for applied data science
…
## # Validation Set Split (0.5/0.5)  
## # A tibble: 1 × 2
##   splits            id        
##   <list>            <chr>     
## 1 <split [259/259]> validation

# extract the training set from the split
covid_train = training( covid_split$splits[[1]] )

# inspect the training data
covid_train

## # A tibble: 259 × 67
##    date       DAY_OF_THE_WEEK HOSPITAL_CENSUS… INDX_UCDH_TEST_… INDX_UCDH_POS_P…
##    <date>     <fct>                      <dbl>            <dbl>            <dbl>
##  1 2020-06-01 1                            547              328                1
##  2 2020-06-02 2                            529              290                3
##  3 2020-06-03 3                            529              236                3
##  4 2020-06-04 4                            554              207                1
##  5 2020-06-05 5                            547              317                4
##  6 2020-06-06 6                            521              144                0
##  7 2020-06-07 0                            519              167                1
##  8 2020-06-08 1                            532              364                1
##  9 2020-06-09 2                            540              290                0
## 10 2020-06-10 3                            541              267                3
## # … with 249 more rows, and 62 more variables: INDX_UCDH_POSITIVITY_RATE <dbl>,
## #   INDX_POS_PT_NEW_ADM_CNT <dbl>, INDX_POS_PT_NEW_ADM_PCT <dbl>,
## #   INDX_POS_PT_IN_HOUSE_D6_CNT <dbl>, INDX_POS_PT_IN_HOUSE_D6_PCT <dbl>,
## #   INDX_POS_PT_IN_HOUSE_D7_CNT <dbl>, INDX_POS_PT_IN_HOUSE_D7_PCT <dbl>,
## #   INDX_POS_PT_ALL_ADM_CNT <dbl>, INDX_POS_PT_ALL_ADM_PCT <dbl>,
## #   OUTREACH_TEST_CNT <dbl>, OUTREACH_POS_TEST_CNT <dbl>,
## #   OUTREACH_POSITIVITY_RATE <dbl>, COVID_RULE_OUT_PT_CNT_M <dbl>, …
…
